<?xml version="1.0" encoding="utf-8"?>
<!-- Generator: Adobe Illustrator 19.1.1, SVG Export Plug-In . SVG Version: 6.00 Build 0)  -->
<svg version="1.1" xmlns="http://www.w3.org/2000/svg" xmlns:xlink="http://www.w3.org/1999/xlink" x="0px" y="0px"
	 viewBox="0 0 960 560" style="enable-background:new 0 0 960 560;" xml:space="preserve">
<style type="text/css">
	.st0{fill:#F41151;}
</style>
<g id="Layer_2">
</g>
<g id="Logo">
	<g>
		<g>
			<polyline points="411.9,150.7 403.2,150.7 395.5,184.8 404.2,184.8 411.9,150.7 			"/>
			<path d="M436.1,150c-10.7,0-20.4,7.5-22.8,18.1c-2.2,9.8,3.8,17.4,14.7,17.4c4.9,0,9-1.8,12.2-4.8l-0.6,4.1h6.5l4.3-19.2h-18.8
				l-1.5,6.7l10,0.1c-2.5,3.3-6,5.2-10.1,5.2c-6.2,0-9.2-4.4-8-9.7c1.4-6,6.4-10.1,12.4-10.1c3.1,0,6.4,1.1,7,5.1h9.2
				C451.1,154.7,444.7,150,436.1,150"/>
			<polyline points="469.5,150.7 460.8,150.7 453.1,184.8 461.8,184.8 469.5,150.7 			"/>
			<polygon points="504.4,150.7 502.7,158.2 491.5,158.2 485.6,184.8 476.9,184.8 482.9,158.2 471.7,158.2 473.4,150.7 			"/>
			<polyline points="551.1,150.7 542.3,150.7 534.7,184.8 560.7,184.8 562.4,177.3 545.1,177.3 551.1,150.7 			"/>
			<path d="M367.9,177.2l4.2-18.9h5.4c5.7,0,9.1,4.1,8,9.3c-1.2,5.4-6.5,9.5-12.2,9.5H367.9 M379.2,150.7h-14.1l-7.7,34.2h14.1
				c11,0,20.5-7,22.8-17.2C396.6,157.7,390.3,150.7,379.2,150.7"/>
		</g>
		<g>
			<path d="M366.6,223.2l2.1-9.1h6.4c3.3,0,5.6,1.7,5,4.5c-0.6,2.8-3.7,4.6-7,4.6H366.6 M376.9,206.6h-15.3l-7.7,34.2h8.7l2.2-9.9
				h5.4l5.4,9.9h10.5l-6.4-11.6c4.6-2.1,8-5.8,9.1-10.6C390.4,211.2,385.6,206.6,376.9,206.6"/>
			<polyline points="423.5,206.6 397,206.6 389.3,240.8 415.8,240.8 417.5,233.4 399.7,233.4 401,227.5 416.6,227.5 418.2,220.2 
				402.7,220.2 404.1,214 421.9,214 423.5,206.6 			"/>
			<path d="M442.8,216.3l2,11.3h-9.1L442.8,216.3z M449.3,206.4h-8.4l-22.6,34.4h9.3l3.6-5.9l14.4-2.6l1.5,8.4h9.3L449.3,206.4"/>
			<path d="M482.8,205.9c-10.6,0-20.2,7.5-22.6,17.8c-2.3,10.3,4,17.8,14.6,17.8c9.5,0,17.8-6,20.9-14.9h-9
				c-1.9,4.3-5.6,6.9-10.2,6.9c-5.7,0-8.7-4.2-7.5-9.8c1.3-5.7,6.2-9.8,11.9-9.8c4.6,0,7.1,2.7,7.1,6.9h9
				C497.9,211.9,492.4,205.9,482.8,205.9"/>
			<polyline points="532.2,206.6 501.1,206.6 499.4,214.2 510.6,214.2 504.7,240.8 513.3,240.8 519.3,214.2 530.5,214.2 
				532.2,206.6 			"/>
			<path d="M545.6,233.6c-5.7,0-8.7-4.5-7.5-9.9c1.2-5.4,6.3-9.9,12-9.9s8.7,4.5,7.5,9.9C556.3,229.1,551.2,233.6,545.6,233.6
				 M551.8,205.9c-10.6,0-20.3,7.8-22.6,17.8c-2.2,9.9,4,17.8,14.6,17.8c10.6,0,20.3-7.8,22.6-17.8
				C568.6,213.8,562.3,205.9,551.8,205.9"/>
			<path d="M580.5,223.2l2.1-9.1h6.4c3.4,0,5.6,1.7,5,4.5c-0.6,2.8-3.7,4.6-7,4.6H580.5 M590.8,206.6h-15.3l-7.7,34.2h8.7l2.2-9.9
				h5.4l5.4,9.9H600l-6.4-11.6c4.6-2.1,8-5.8,9.1-10.6C604.3,211.2,599.6,206.6,590.8,206.6"/>
		</g>
		<path d="M517.3,160.3l2,11.3h-9.1L517.3,160.3z M523.7,150.4h-8.4l-22.6,34.4h9.3l3.6-5.9l14.4-2.6l1.5,8.4h9.3L523.7,150.4"/>
	</g>
</g>
</svg>
