{
  "projects": [
    {
      "id": 1,
      "name": "Тестовый проект",
      "notifiable": true
    },
    {
      "id": 2,
      "name": "DigitalReactor.io",
      "notifiable": false
    }
  ],
  "registration_counters": [
    {
      "counterId": "1234",
      "name": "Counter 1"
    },
    {
      "counterId": "1235",
      "name": "Counter 2"
    }
  ],
  "summariesPreview_project1": {
    "id": 2,
    "status": "LOADING",
    "date": "2017-04-23 22:08:33"
  },
  "summariesPreview_project2": {
    "id": 1,
    "status": "COMPLETED",
    "date": "2017-04-23 22:08:33"
  },
  "unusedCounters": [
    {
      "name": "Разноцветные игрушки",
      "tokenName": "Тоекн 1",
      "tokenId": 123,
      "externalId": 343
    },
    {
      "name": "Разноцветные игрушки2",
      "tokenName": "Тоекн 2",
      "tokenId": 124,
      "externalId": 343
    },
    {
      "name": "Разноцветные игрушки3",
      "tokenName": "Тоекн 2",
      "tokenId": 124,
      "externalId": 3343
    }
  ],
  "summaries": [
    {
      "project": "digialreactor.io",
      "id": 1,
      "goals": [
        {
          "name": "Тестовая цель",
          "id": 1433232
        }
      ],
      "date": "2017-04-23"
    }
  ],
  "users": [
    {
      "name": "test@ui.user",
      "id": "current"
    }
  ]
}
